{
  "type": "service_account",
  "project_id": "reactmovieapp-21f80",
  "private_key_id": "3ff9a28cb53ba946456b95744ddeb60d95135074",
  "private_key": "-----BEGIN PRIVATE KEY-----\nMIIEvwIBADANBgkqhkiG9w0BAQEFAASCBKkwggSlAgEAAoIBAQCvYOPgM72JNC7G\nUYJ6j5/df0WjijDuG9zpGU/Dg1RGRk7OiNtDjtfsb/hR5BBBRd5bu1r6Xy6L0pn9\nLw/+gdh0pR68DsF3s2vSug3CHFBWYPEO8FUAcp26jkCRtZSLeS5vgHBmoiYyta5+\nei/0wnebtd3JcbdXoX/Mc/t9npcqGM82KEdovUKa5PdjesAurzDGiyynONYs4gQZ\ne3S4nL0ifaVTR+Zk0g7CPrFFAH90EWxZ7ozGY8jk7NjZQTQBjtJ/qZ6Cmd67/Dkc\n8uTNhc5Otimi0LAVeJ5N1ka2vNzp3TT0yZrgGYHdXWYnrP3f6w/xwHjDVaFghr9d\nfnxpApcDAgMBAAECggEAGqPKGY1idgvyKvfIrRtR+lBR4LSmGBUtak8I+bbiP0aA\nxAiv3cQ98lFT1ASjn3agfyinei6pIF4ePAJBGLTaj2VhlMldA/TCJSFT469vWJ+j\nHlTNZKMEaIkhL8D4TnNa5V8KM9zfloZYeifPTwuXJZTrmqTmZ65FfmYDxqInbiJU\nNesKDc5EJV0uPgD4QtpiGSoFgQR9zYMC8ddk017Xg2oWgivj/KDmxFSfNrDkBHF1\nZBgVKesELTzx9a7VlqwdquEkxghztMndeDj6joszYmc5miTD0XVh11Mgcg1hRiZZ\ncn31BEBhxJtWb3luE3gVr7jK6B5xUy216YjMsYBAOQKBgQDbemoQqPsrTa2RWHbB\nUO8uqWXQRdNzSjQrkCNYFsvR2LEgbQ8I3wAs3LVkYEj/f7nrAgO3dNx5g4qqdeei\nKG8By8SKN+uV0jBjuKUQrIgVmk0/brujTy4SeI7BmZ9BRpuuizOKdcVo2w+0JJMd\nGiXHWGw78h5R81GI6YRdA+fxrwKBgQDMj92Wd4pKBcUNCULw2w8cbsO6D9Ntr5zI\n2ou0xblKEeChfQ9u5/Qz5el9J16H6vF+yIo9B6samu6iqI5iAP3CRryI1LD3SQ7r\nUzedrN150HMzdUMblMHvxZ6MQhLZs6wZ8pbSkEzlk+3M4876zKiHh8C94wCZ/Hgf\nZ8uSQmOo7QKBgQDZLW7bAXtYxEql8lXAwSeMks9Oomm0QY8SNFTlC9mv0q6jGYex\nDYmM2vEbXDOfr3H3XEz1MkwgacvDFVyaF0yRCGN5KhCSdiSv6LxdnXwjdEZQKHDA\nDs/WMzl/1VXDL+1JcDEWJ6eqNGp7pV11hLQxaAvh3ZmnGhBqXDhAGmdfvQKBgQCn\nYxWkOT8coSoEJ87x/Z6Y2n4ocyjD+U5nAIYPLzgWRxizq/0D+KPYD8sGkT+GIpbn\n8rtDg1HcnGinCxwvT7ZV0cIWiUwhnVOq9lZtHHXCZvLNaae3Gvuy8tdw1+RK5f3u\n4ZXOyStTNMACx2qnyO4isM/j0au9VV0J/coTbWXVZQKBgQCSNU/mMrW2cmCLgo9X\nC7K61udvdpM19H7mw65TWU3CogjCC0aucLuMjZrRJvEKqgaK5pOs3bJkjW+SMjHV\n9WiZmtusjANrU+Fvpi3/+N6f5Vfxi6vmB72e1WVyysfEzNnStOEc7vI3R4CxPjDG\nC0A0rBnWxk2cSZPkrxxF4Uwccg==\n-----END PRIVATE KEY-----\n",
  "client_email": "firebase-adminsdk-h9tnb@reactmovieapp-21f80.iam.gserviceaccount.com",
  "client_id": "113328763856908677125",
  "auth_uri": "https://accounts.google.com/o/oauth2/auth",
  "token_uri": "https://oauth2.googleapis.com/token",
  "auth_provider_x509_cert_url": "https://www.googleapis.com/oauth2/v1/certs",
  "client_x509_cert_url": "https://www.googleapis.com/robot/v1/metadata/x509/firebase-adminsdk-h9tnb%40reactmovieapp-21f80.iam.gserviceaccount.com"
}
